Case #1: 13
Case #2: 14
Case #3: 12
Case #4: 44
Case #5: 3
Case #6: 46
Case #7: 60
Case #8: 51
Case #9: 31
Case #10: 28
Case #11: 34
Case #12: 8
Case #13: 39
Case #14: 54
Case #15: 61
Case #16: 16
Case #17: 54
Case #18: 65
Case #19: 29
Case #20: 63
Case #21: 73
Case #22: 34
Case #23: 20
Case #24: 42
Case #25: 50
Case #26: 68
Case #27: 56
Case #28: 73
Case #29: 54
Case #30: 77
Case #31: 65
Case #32: 8
Case #33: 10
Case #34: 72
Case #35: 25
Case #36: 3
Case #37: 7
Case #38: 42
Case #39: 44
Case #40: 2
Case #41: 56
Case #42: 61
Case #43: 1
Case #44: 56
Case #45: 27
Case #46: 45
Case #47: 18
Case #48: 26
Case #49: 38
Case #50: 36
Case #51: 69
Case #52: 17
Case #53: 44
Case #54: 53
Case #55: 66
Case #56: 36
Case #57: 43
Case #58: 16
Case #59: 38
Case #60: 75
Case #61: 7
Case #62: 23
Case #63: 60
Case #64: 10
Case #65: 73
Case #66: 69
Case #67: 68
Case #68: 8
Case #69: 21
Case #70: 47
Case #71: 38
Case #72: 13
Case #73: 67
Case #74: 9
Case #75: 38
Case #76: 67
Case #77: 16
Case #78: 61
Case #79: 4
Case #80: 4
Case #81: 59
Case #82: 56
Case #83: 48
Case #84: 2
Case #85: 64
Case #86: 6
Case #87: 39
Case #88: 27
Case #89: 54
Case #90: 54
Case #91: 43
Case #92: 34
Case #93: 63
Case #94: 57
Case #95: 51
Case #96: 25
Case #97: 69
Case #98: 24
Case #99: 22
Case #100: 44
Case #101: 21
Case #102: 10
Case #103: 52
Case #104: 4
Case #105: 55
Case #106: 17
Case #107: 12
Case #108: 43
Case #109: 15
Case #110: 7
Case #111: 36
Case #112: 29
Case #113: 62
Case #114: 54
Case #115: 71
Case #116: 45
Case #117: 35
Case #118: 42
Case #119: 3
Case #120: 56
Case #121: 10
Case #122: 73
Case #123: 76
Case #124: 59
Case #125: 61
Case #126: 26
Case #127: 54
Case #128: 20
Case #129: 59
Case #130: 34
Case #131: 43
Case #132: 2
Case #133: 29
Case #134: 1
Case #135: 9
Case #136: 71
Case #137: 29
Case #138: 71
Case #139: 77
Case #140: 14
Case #141: 6
Case #142: 74
Case #143: 23
Case #144: 65
Case #145: 57
Case #146: 2
Case #147: 11
Case #148: 3
Case #149: 65
Case #150: 8
Case #151: 57
Case #152: 28
Case #153: 38
Case #154: 67
Case #155: 50
Case #156: 2
Case #157: 39
Case #158: 2
Case #159: 1
Case #160: 10
Case #161: 13
Case #162: 55
Case #163: 66
Case #164: 71
Case #165: 15
Case #166: 41
Case #167: 66
Case #168: 70
Case #169: 16
Case #170: 14
Case #171: 61
Case #172: 64
Case #173: 2
Case #174: 52
Case #175: 7
Case #176: 29
Case #177: 2
Case #178: 35
Case #179: 21
Case #180: 65
Case #181: 18
Case #182: 15
Case #183: 40
Case #184: 72
Case #185: 14
Case #186: 18
Case #187: 19
Case #188: 43
Case #189: 35
Case #190: 5
Case #191: 59
Case #192: 44
Case #193: 31
Case #194: 15
Case #195: 9
Case #196: 11
Case #197: 68
Case #198: 51
Case #199: 61
Case #200: 14
Case #201: 61
Case #202: 64
Case #203: 48
Case #204: 70
Case #205: 36
Case #206: 11
Case #207: 42
Case #208: 42
Case #209: 50
Case #210: 43
Case #211: 20
Case #212: 67
Case #213: 39
Case #214: 45
Case #215: 60
Case #216: 33
Case #217: 62
Case #218: 10
Case #219: 67
Case #220: 54
Case #221: 71
Case #222: 40
Case #223: 45
Case #224: 4
Case #225: 24
Case #226: 30
Case #227: 52
Case #228: 4
Case #229: 38
Case #230: 63
Case #231: 56
Case #232: 72
Case #233: 67
Case #234: 11
Case #235: 33
Case #236: 5
Case #237: 38
Case #238: 41
Case #239: 64
Case #240: 50
Case #241: 62
Case #242: 28
Case #243: 30
Case #244: 42
Case #245: 60
Case #246: 19
Case #247: 23
Case #248: 61
Case #249: 56
Case #250: 34
Case #251: 68
Case #252: 59
Case #253: 52
Case #254: 33
Case #255: 15
Case #256: 57
Case #257: 54
Case #258: 5
Case #259: 56
Case #260: 8
Case #261: 37
Case #262: 44
Case #263: 50
Case #264: 44
Case #265: 12
Case #266: 56
Case #267: 37
Case #268: 23
Case #269: 12
Case #270: 60
Case #271: 4
Case #272: 48
Case #273: 26
Case #274: 10
Case #275: 34
Case #276: 56
Case #277: 32
Case #278: 37
Case #279: 54
Case #280: 47
Case #281: 19
Case #282: 67
Case #283: 46
Case #284: 1
Case #285: 52
Case #286: 2
Case #287: 15
Case #288: 50
Case #289: 6
Case #290: 57
Case #291: 14
Case #292: 50
Case #293: 48
Case #294: 30
Case #295: 29
Case #296: 1
Case #297: 47
Case #298: 26
Case #299: 12
Case #300: 32
Case #301: 20
Case #302: 8
Case #303: 60
Case #304: 61
Case #305: 9
Case #306: 53
Case #307: 70
Case #308: 29
Case #309: 31
Case #310: 19
Case #311: 17
Case #312: 52
Case #313: 73
Case #314: 43
Case #315: 14
Case #316: 21
Case #317: 44
Case #318: 47
Case #319: 20
Case #320: 37
Case #321: 7
Case #322: 53
Case #323: 23
Case #324: 50
Case #325: 56
Case #326: 43
Case #327: 1
Case #328: 47
Case #329: 55
Case #330: 54
Case #331: 30
Case #332: 72
Case #333: 52
Case #334: 54
Case #335: 13
Case #336: 46
Case #337: 26
Case #338: 72
Case #339: 60
Case #340: 36
Case #341: 72
Case #342: 7
Case #343: 66
Case #344: 67
Case #345: 25
Case #346: 43
Case #347: 53
Case #348: 36
Case #349: 32
Case #350: 30
Case #351: 16
Case #352: 57
Case #353: 17
Case #354: 16
Case #355: 2
Case #356: 48
Case #357: 21
Case #358: 37
Case #359: 3
Case #360: 52
Case #361: 18
Case #362: 26
Case #363: 53
Case #364: 33
Case #365: 28
Case #366: 57
Case #367: 18
Case #368: 29
Case #369: 12
Case #370: 63
Case #371: 17
Case #372: 67
Case #373: 76
Case #374: 19
Case #375: 65
Case #376: 33
Case #377: 41
Case #378: 14
Case #379: 46
Case #380: 38
Case #381: 2
Case #382: 60
Case #383: 23
Case #384: 75
Case #385: 43
Case #386: 58
Case #387: 73
Case #388: 75
Case #389: 26
Case #390: 3
Case #391: 63
Case #392: 8
Case #393: 29
Case #394: 5
Case #395: 24
Case #396: 2
Case #397: 17
Case #398: 1
Case #399: 68
Case #400: 42
Case #401: 61
Case #402: 61
Case #403: 34
Case #404: 12
Case #405: 41
Case #406: 22
Case #407: 3
Case #408: 56
Case #409: 10
Case #410: 61
Case #411: 15
Case #412: 39
Case #413: 10
Case #414: 37
Case #415: 17
Case #416: 60
Case #417: 21
Case #418: 20
Case #419: 14
Case #420: 28
Case #421: 61
Case #422: 43
Case #423: 46
Case #424: 14
Case #425: 56
Case #426: 24
Case #427: 56
Case #428: 63
Case #429: 21
Case #430: 55
Case #431: 12
Case #432: 42
Case #433: 47
Case #434: 71
Case #435: 64
Case #436: 35
Case #437: 14
Case #438: 3
Case #439: 51
Case #440: 15
Case #441: 34
Case #442: 5
Case #443: 42
Case #444: 2
Case #445: 75
Case #446: 19
Case #447: 6
Case #448: 60
Case #449: 66
Case #450: 29
Case #451: 27
Case #452: 21
Case #453: 5
Case #454: 41
Case #455: 55
Case #456: 9
Case #457: 38
Case #458: 38
Case #459: 12
Case #460: 15
Case #461: 68
Case #462: 37
Case #463: 11
Case #464: 22
Case #465: 68
Case #466: 14
Case #467: 66
Case #468: 29
Case #469: 37
Case #470: 31
Case #471: 28
Case #472: 57
Case #473: 26
Case #474: 28
Case #475: 35
Case #476: 54
Case #477: 75
Case #478: 22
Case #479: 24
Case #480: 4
Case #481: 35
Case #482: 18
Case #483: 24
Case #484: 16
Case #485: 57
Case #486: 16
Case #487: 60
Case #488: 25
Case #489: 27
Case #490: 23
Case #491: 13
Case #492: 58
Case #493: 3
Case #494: 13
Case #495: 41
Case #496: 63
Case #497: 28
Case #498: 59
Case #499: 70
Case #500: 40
